\begin{thebibliography}{1}
\providecommand{\natexlab}[1]{#1}
\providecommand{\url}[1]{\texttt{#1}}
\expandafter\ifx\csname urlstyle\endcsname\relax
  \providecommand{\doi}[1]{doi: #1}\else
  \providecommand{\doi}{doi: \begingroup \urlstyle{rm}\Url}\fi

\bibitem[Smaers et~al.(2021)Smaers, Rothman, Hudson, Balanoff, Beatty,
  Dechmann, {de Vries}, Dunn, Fleagle, Gilbert, Goswami, Iwaniuk, Jungers,
  Kerney, Ksepka, Manger, Mongle, Rohlf, Smith, Soligo, Weisbecker, and
  Safi]{smaersEvolutionMammalianBrain2021}
J.~B. Smaers, R.~S. Rothman, D.~R. Hudson, A.~M. Balanoff, B.~Beatty, D.~K.~N.
  Dechmann, D.~{de Vries}, J.~C. Dunn, J.~G. Fleagle, C.~C. Gilbert,
  A.~Goswami, A.~N. Iwaniuk, W.~L. Jungers, M.~Kerney, D.~T. Ksepka, P.~R.
  Manger, C.~S. Mongle, F.~J. Rohlf, N.~A. Smith, C.~Soligo, V.~Weisbecker, and
  K.~Safi.
\newblock The evolution of mammalian brain size.
\newblock \emph{Science Advances}, 7\penalty0 (18):\penalty0 eabe2101, Apr.
  2021.
\newblock \doi{10.1126/sciadv.abe2101}.

\end{thebibliography}
